{
    "soccer" : "Football",
    "tennis" : "Tennis",
    "handball" : "Handball",
    "basketball" : "Basketball",
    "icehockey" : "Hockey sur glace",
    "football" : "Football américan",
    "rugby" : "Rugby",
    "volleyball" : "Volleyball",
}