{
  "images" : [
    {
      "idiom" : "universal",
      "filename" : "c91124e28198634292e8da8cf21d861c.png",
      "scale" : "1x"
    },
    {
      "idiom" : "universal",
      "scale" : "2x"
    },
    {
      "idiom" : "universal",
      "scale" : "3x"
    }
  ],
  "info" : {
    "version" : 1,
    "author" : "xcode"
  }
}